<svg width="20" height="20" viewBox="0 0 20 20" fill="none" xmlns="http://www.w3.org/2000/svg">
<path fill-rule="evenodd" clip-rule="evenodd" d="M10.5893 13.0892C10.2638 13.4147 9.73618 13.4147 9.41074 13.0892L5.24408 8.92257C4.91864 8.59713 4.91864 8.06949 5.24408 7.74406C5.56951 7.41862 6.09715 7.41862 6.42259 7.74406L10 11.3215L13.5774 7.74406C13.9028 7.41862 14.4305 7.41862 14.7559 7.74406C15.0814 8.06949 15.0814 8.59713 14.7559 8.92257L10.5893 13.0892Z" fill=""/>
</svg>
